<svg xmlns="http://www.w3.org/2000/svg" viewBox="0 0 1668.79 1022.87">
  <g fill-rule="evenodd" clip-rule="evenodd">
    <path fill="#fff7d6" d="M255.56 593.34c.78-9.54 1.12-17.95 2.25-26.25 1.12-8.2 3.04-16.3 4.67-24.73-4.39-1.37-9.17-2.7-8.6-8.9.35-3.74 5.9-7.86 11.56-8.75.17-.27.44-.52.5-.8 3.73-18.46 8.27-19.5 26.57-21.69 22.76-2.73 45.74-3.54 68.6-5.46 26.68-2.24 53.24-.47 79.73 2.36 10.35 1.1 20.62 3.53 30.76 6 14.97 3.65 19.79 11.72 21.43 29.02.28 2.96-.16 6 .05 8.97.12 1.6.93 3.17 1.6 5.29 15.5-18.5 35.51-21.16 56.94-20.3 9.44.4 18.92-.49 28.37-.4 15.45.13 30.9.46 46.34.95 8.47.27 17.02.44 25.37 1.7 15.43 2.34 27.68 10.55 38.02 22.53 3.63-9.6 11.24-15.03 20.32-18.96 1.36-.58 2.37-2.16 3.36-3.43a622.2 622.2 0 0 0 11.5-15 8.76 8.76 0 0 0 1.8-4.35c.83-14.78 1.53-29.56 2.21-44.35 1.62-34.91 3.27-69.83 4.8-104.75.85-19.3 1.4-38.6 2.24-57.9 1.53-34.58 3.23-69.16 4.75-103.75.99-22.28 1.85-44.57 2.59-66.87.12-3.88-1.55-6.96-6.04-7.73-6.82-1.16-13.01-4.1-16.65-10-6.57-10.66-17.74-13.96-27.95-18.9-1.75-.84-3.6-1.48-6.8-2.78 10-7.16 18.7-14.47 28.38-20.14 24.14-14.16 50.4-23.23 77.57-29.54 37.63-8.74 75.64-15.3 114.2-18.56 35.41-3 70.86-3.88 106.34-1.83 17.95 1.04 35.84 3.15 53.8 4.06 25.75 1.3 51.6 1.26 77.3 3.07 18.21 1.28 36.27 4.7 54.41 7.1 10.23 1.34 20.49 2.4 30.7 3.86 6.4.9 12.93 1.68 19.1 3.56 21.82 6.65 43.67 12.77 66.67 14.11 17.07 1 33.25 6.45 49.44 11.6a713.92 713.92 0 0 0 26.36 7.66c12.03 3.32 21.93 9.56 28.27 20.56 3.3 5.72 3.72 11.7-.23 17.41-9.1 13.16-20.48 22.58-37.45 23.06-1.57.04-3.42 1.14-4.61 2.3-21.98 21.12-43.86 42.35-65.82 63.5-2.25 2.17-3.27 3.89-2.7 7.55.64 4.2-1.13 8.78-1.87 13.2-.24 1.47-.79 2.92-.8 4.39-.1 22.13-.07 44.27-.2 66.4-.05 7.15-.5 14.3-.71 21.45-.13 4.12 1.42 5.96 5.81 4.45 4-1.37 6.65-.26 7.45 4.4 1.72 9.96 4.43 19.82 5.23 29.84.34 4.25 3.08 10.56-3.24 13.54-2.1 1-5.75 1.96-6.9.93-1.48-1.3-1.42-4.65-1.5-7.13-.05-2.3 1.21-4.74.8-6.91-1.54-8.03-3.53-15.96-5.36-23.93l-1.95.2-9.18 178.34c1.41-.51 2.53-.8 3.55-1.3 9.1-4.53 18.8-4.7 28.68-4.42 9.26.25 18.56 0 27.82-.46 21.08-1.05 42.16-3.53 63.22-3.25 20.6.27 41.02-1.55 61.53-2.07 10.46-.26 20.95.54 31.43.87 11.47.36 22.94.82 34.41 1.09 8.76.2 12.85 2.83 15.52 11.17 1.2 3.77 2.42 7.89 2.04 11.7-.36 3.65-2.01 7.82-4.48 10.47-3.43 3.69-8.15 6.18-12.1 9.02l3.66 3.9-4.92 3.34c.37.1 1.87.2 2.88.95.73.55 1.3 2.14 1.02 2.96-.24.7-1.76 1.36-2.73 1.38-8.08.1-16.16.06-25.1.06v47.13c5.8 1.15 12.28 2.35 18.72 3.75 2.08.45 4.16 1.21 6.08 2.16 5.5 2.73 6.7 6.53 4.88 12.43-.98 3.18-1.15 6.64-1.47 10-.44 4.63-.97 9.28-.95 13.92.13 21.77.5 43.53.64 65.29.07 10.14-.17 20.28-.31 30.43-.03 2.14-.25 4.27-.4 6.75 2.78.74 5.32 1.39 7.84 2.1 13.36 3.8 26.72 7.62 40.07 11.44.31.09.69.2.9.42 4.52 5.08 11.22 5.78 16.81 8.68 2.18 1.13 3.8 4.99 4.1 7.77.49 4.74.14 9.67-.68 14.38-.37 2.13-2.34 4.9-4.27 5.67-4.57 1.83-9.56 2.64-15.54 4.17.4 5.61.88 11.56 1.23 17.5.07 1.1.06 2.73-.6 3.23-2.86 2.2-1.45 4.58-.96 7.18 2.47 13.2 5.83 26.34 6.86 39.66 1.81 23.52 3.03 47.16 2.86 70.74-.15 20.63-7.45 39.34-21.15 55.2-4.01 4.64-8.22 6.43-14.88 4.74-7.12-1.8-14.83-1.63-22.28-1.66-58.32-.3-116.65-.38-174.97-.63-65.15-.28-130.3-.66-195.44-1l-194.95-1c-65.48-.32-130.97-.7-196.45-.98-56.65-.25-113.3-.6-169.95-.56-62.96.04-125.92.72-188.88.64-76.14-.1-152.29-.69-228.44-1.1-9.83-.05-19.7.23-29.46-.65-3.69-.34-7.9-2.76-10.52-5.52-9.76-10.27-15.73-22.88-21.03-35.93-10.58-26.01-21.58-51.85-32.33-77.8-4.33-10.43-8.36-20.99-12.74-31.4a7.33 7.33 0 0 0-3.85-3.64c-10.49-3.73-21.12-7.07-31.6-10.79a56.26 56.26 0 0 1-24.65-17.26c-5.83-6.97-6.59-13.72-1.79-21.56 2.53-4.14 5.82-7.91 9.24-11.39 6.32-6.42 10.1-13.5 7.54-22.74-.68-2.45-.38-4.33 2.54-3.77 14.22 2.73 27.68-.98 41.24-4.38a33071 33071 0 0 1 150.83-37.54c3.59-.88 4.74-2.3 5.12-5.84.81-7.5 2.62-14.88 3.3-22.38.76-8.24.71-16.56 1.03-24.84.6-15.9 1.34-31.81 1.71-47.72.05-2.28-1.18-4.98-2.65-6.83-3.52-4.45-2.27-7.94 3.62-11.15zm-145.07 242.7l-.15 1.53c.38.28.72.64 1.14.84a793.92 793.92 0 0 0 144.1 53.46c5.14 1.36 10.38 2.3 15.48 3.75 1.1.31 1.8 1.97 2.7 3.01-1.3.73-2.51 1.7-3.9 2.1-.82.25-1.92-.32-2.88-.6-21.7-6.28-43.6-11.95-65.04-19.04-22.67-7.5-44.83-16.53-67.32-24.59-11.31-4.06-22.86-7.46-34.51-11.23 3.98 10.15 7.77 20.2 11.86 30.12 10.62 25.81 21.5 51.51 32 77.37 4.91 12.1 10.4 23.74 19.01 33.72 2.69 3.11 5.71 4.5 9.96 4.52 26.32.05 52.65.43 78.97.57 77.82.42 155.63 1.02 233.44 1.1 51.3.04 102.58-1.04 153.87-1 70.14.05 140.3.71 210.44 1.07 60.32.3 120.64.53 180.95.84 71.65.36 143.3.68 214.95 1.2 51.13.37 102.26 1.05 153.39 1.6 18.46.2 36.93.63 55.39.61 11.8 0 23.6-.9 35.41-.96 25.12-.15 50.24 0 75.36-.08 1.36 0 3.2-.77 4-1.81 15.05-19.95 19.1-43.53 21.4-67.46 1.13-11.69 1.8-23.59-1.77-35.18-.3-.98.86-2.4 1.35-3.62 1.18.68 2.48 1.21 3.5 2.09.55.47.76 1.5.85 2.3.78 7.08 2.16 14.18 2.1 21.26a182.48 182.48 0 0 1-5.7 43.38c-3.07 11.98-6.17 23.77-13.67 33.94-1.5 2.01-1.95 4.79-2.89 7.22 2.65-1.2 5.3-2.38 7.94-3.6.27-.12.4-.53.6-.78 11.75-13.96 18.14-30.2 19.03-48.26.67-13.6.03-27.26-.22-40.9-.49-26.67-3.46-53.07-11.12-78.69-2.67-8.9-7.12-17.28-10.76-25.9l-1.8-.03c-1 1.43-2.76 2.83-2.85 4.32-.2 3.44-1.7 3.98-4.8 3.95-36.15-.4-72.3-.68-108.46-.94-47.82-.36-95.63-.67-143.45-1l-144.46-1-143.46-1c-101.13-.72-202.27-1.25-303.4-2.25-66.07-.65-132.17 1.57-198.2-3.8-23.17-1.87-46.62-.43-69.94-.6-43.1-.33-86.2-.63-129.3-1.11-28.82-.32-57.64-.95-86.45-1.41-40.48-.66-80.96-1.32-121.44-1.93-8.56-.13-17.12-.02-25.68-.02 15.54 3.72 31.15 6.77 46.78 9.73 50.28 9.52 100.6 18.84 150.83 28.62 17.16 3.34 34.19 6.19 51.8 5.43 18.8-.8 37.65-.65 56.48-.73 37.66-.16 75.32-.6 112.98-.14 30.45.38 60.88 2.12 91.34 2.87 14.94.37 29.94.45 44.85-.4 24.07-1.38 48.05-4.39 72.12-5.32 29.62-1.16 59.28-.97 88.93-1.18 6.14-.04 12.3.61 18.42 1.16 20.03 1.81 40.02 4.6 60.08 5.37 24.62.96 49.3.43 73.95.26 21.94-.14 43.89-1.31 65.81-.9 47.79.9 95.56 2.75 143.34 3.76 18.28.39 36.59-.3 54.88-.76 18.3-.47 36.6-1.62 54.9-1.83 29.64-.34 59.29-.63 88.91 0 18.76.4 37.47 3.24 56.23 3.64 22.45.48 44.92-.46 67.38-.8 4.15-.07 8.3-.5 12.45-.38 12.11.35 24.22 1.02 36.33 1.3 4.46.12 9.2-1.52 13.36-.52 9.2 2.21 18.43 1.58 27.66 1.82 1.85.05 4.67-1.25 4.22 2.02-.17 1.25-3.07 3.09-4.65 3.02-9.26-.42-18.5-1.39-27.75-2-2.64-.19-5.3.14-7.96.27-7.96.4-15.93 1.2-23.88 1.12-9.77-.1-19.53-1.4-29.3-1.39-23.27.05-46.54.58-69.81.88-2 .02-4-.17-6-.31-16.41-1.22-32.81-3.16-49.25-3.52-27.31-.59-54.65-.16-81.97-.15-1.33 0-2.67.1-4 .15-30.27 1.21-60.53 2.7-90.8 3.48-11.62.3-23.26-1.26-34.9-1.6a8381.2 8381.2 0 0 0-87.43-2.09c-27.1-.49-54.22-.94-81.32-.85-20.14.07-40.28 1.48-60.42 1.48-18.3 0-36.63-.66-54.9-1.8-17.57-1.12-35.06-3.66-52.63-4.76-13.77-.87-27.62-.7-41.43-.63-18.98.1-37.98.02-56.92.92-22.1 1.06-44.12 3.3-66.2 4.62-12.93.78-25.9 1.07-38.86 1.06-13.28 0-26.56-.53-39.83-1.05-12.8-.5-25.57-1.85-38.35-1.84-71.49.08-142.97.47-214.46.73-12.1.05-11.95.05-14.06 12.38a302.45 302.45 0 0 0-3.69 67.66c.61 11.16-.65 23.14 7.6 32.66-4.44 2.7-7.35 1.94-8.55-3.15-1.71-7.24-3.41-14.69-3.5-22.07-.23-19.94-.04-39.9.87-59.81.43-9.46 2.86-18.83 4.29-27.62-6.68 0-13.64.07-20.6-.02-13.8-.18-27.65-1.14-41.42-.55-28.33 1.22-56.55.91-84.8-1.85-17.51-1.7-35.14-2.35-52.72-3.47zm696.78-625.5c.88 1.54 1.91 3.42 3 5.26 33.28 56.06 66.57 112.11 99.84 168.18 23.09 38.9 46.14 77.82 69.25 116.7.71 1.2 2.22 3.2 2.77 3.02 5.54-1.8 11.97.1 16.84-4.65 20.15-19.66 40.46-39.16 60.72-58.71l166.83-161.05 45.03-43.48c-1.66-5.42-2.8-10.61-4.8-15.45-15.2-36.87-30.53-73.68-46.02-110.43-.7-1.67-3.14-3.48-4.95-3.7-31.36-3.82-62.68-8.06-94.13-10.87a3010.6 3010.6 0 0 0-113.97-8c-30.43-1.56-60.92-1.58-91.4-2.24-8.49-.19-15.4 2.91-20.4 10-1.82 2.59-3.99 4.92-5.93 7.42-23.05 29.7-46.13 59.4-69.1 89.17-4.66 6.03-8.93 12.35-13.58 18.82zm310.85 303.14c2.59-.23 4.73-.56 6.88-.6 33.12-.73 66.24-1.9 99.36-1.96 20.61-.03 41.23 1.65 61.84 2.37 1.19.05 3.34-1.48 3.5-2.52.92-5.9 1.67-11.85 1.94-17.81 1.44-31.92 2.68-63.84 4.08-95.76.53-12.13 1.2-24.25 1.95-36.37.56-8.96 1.84-17.9 1.9-26.86.13-15.78-.65-31.57-.64-47.35 0-16.15.44-32.3.8-48.43.11-4.77 1.13-9.7-5.36-11.39-1.07-.27-1.8-1.83-2.86-2.99l-288.96 278.9c6.26.36 11.06.92 15.84.85 9.15-.12 18.29-.64 27.43-.9 7.16-.2 14.33-.59 21.48-.3 13.92.57 27.85 1.36 41.74 2.48 4.7.38 8.53 2.88 9.08 8.64zm-385.49-4.63c2.4-1.42 3.8-2.3 5.23-3.08 9.57-5.25 19.84-8.22 30.66-6.59 4.76.72 6.71-.74 8.25-4.44 1.08-2.6 1.8-5.38 3.12-7.86a41.82 41.82 0 0 1 5.4-8.21c2.88-3.26 6.44-3.2 9.76-.42 4.35 3.65 6.53 7.76 5 13.97-2.65 10.72-4.8 21.68 4 31.15 1.16 1.27 1.4 3.35 2.31 4.93.5.89 1.43 2.1 2.25 2.16 6.08.52 12.18.8 16.54 1.04 3.97-6.08 6.39-12.05 10.7-15.92 8.59-7.75 18.88-13.05 30.53-14.9 23.74-3.75 47.47-1.65 71.17.55 10.68.99 21.33 2.23 32.85 3.45l-221.15-364.1a8.8 8.8 0 0 0-1.2 4.65c-.78 20.13-1.5 40.27-2.37 60.4-1.15 26.27-2.46 52.54-3.6 78.8-.89 20.13-1.57 40.27-2.45 60.4-1.13 25.94-2.37 51.87-3.57 77.81-.63 13.8-1.32 27.6-1.87 41.41-.58 14.62-1.03 29.25-1.56 44.8zm767.25 122.08c-18.48-.7-36.42-1.44-54.36-2.03-31.62-1.03-63.24-1.97-94.86-2.95-43.94-1.35-87.87-2.73-131.81-4.05-25.3-.76-50.6-1.44-75.9-2.1-14.31-.38-28.64-1.18-42.94-.83-23.23.56-46.43 2.5-69.65 2.76-27.97.32-55.96-.37-83.93-.9-22.15-.41-44.28-1.26-66.42-1.89-24.29-.7-48.58-1.39-72.86-2.05-23.8-.65-47.6-1.35-71.41-1.85-10.75-.23-21.51-.04-32.58-.04v17.04c10.6.51 21.04 1.06 31.5 1.5 18.93.82 37.88 1.31 56.8 2.4 22.58 1.3 45.13 3.1 67.7 4.64 16.6 1.13 33.22 1.88 49.78 3.3 31.8 2.71 63.58 5.64 95.34 8.76 29.27 2.88 58.57 5.68 87.75 9.32 35.44 4.43 70.8 9.5 106.13 14.68 52.29 7.68 104.16 17.55 155.22 31.3 25.04 6.74 49.9 14.3 72.72 26.96 12.1 6.72 24.35 13.82 24.87 30.66 15.79 0 31.26.06 46.73-.13 1.04 0 2.91-1.85 2.95-2.9.37-8.47.47-16.95.5-25.44.02-9.49-.31-18.98-.11-28.47.35-16.28 1.4-32.56 1.35-48.83-.03-9.56-1.61-19.12-2.5-28.86zm-1444.8 129c-.83 10.16-3.63 19.43-13.27 26.77 3.35.48 5.22.97 7.1.98 10.96.03 21.92-.19 32.88-.07 22.16.23 44.31.56 66.47.94 64.93 1.1 129.86 2.54 194.79 3.3 40.99.48 81.98-.03 122.98-.03 15.66 0 31.33-.26 46.97.4 15.58.64 31.1 2.92 46.69 3.34 27.3.74 54.64.65 81.96.85 47.99.36 95.98.67 143.96 1l144.46 1 143.95 1 144.46 1c47.82.33 95.63.68 143.45 1 64.65.41 129.3.6 193.94 1.43 9.38.12 15.87-3.3 21.86-9.74-1.7-4.94-5.14-8.21-9.7-10.72-7.27-4-14.29-8.43-21.59-12.36a17.28 17.28 0 0 0-7.95-2.2c-8.06.07-16.13.67-24.19 1.1-.78.04-1.57.28-2.32.52-2.2.71-4.39 2.14-6.57 2.12-35.28-.4-70.56-1.2-105.85-1.48-69.13-.54-138.25-1.1-207.38-1.08-28.22 0-56.4-1.18-84.7.75-23.18 1.58-46.6-.44-69.92-.67-86.97-.83-173.94-1.54-260.9-2.37-51.32-.48-102.63-1.1-153.94-1.68-39.46-.43-78.91-.92-118.37-1.3-13.82-.14-27.64.07-41.46-.05-66.46-.57-132.91-1.2-199.37-1.81-35.49-.33-70.97-.62-106.46-1.02-16.5-.19-32.98-.74-49.47-.89-17.47-.15-34.95-.03-52.52-.03zm647.09-70.43c2.75.4 4.88.85 7.03 1 24.72 1.76 49.44 3.44 74.16 5.2 14.26 1.02 28.53 2.03 42.78 3.26 20.87 1.79 41.7 3.9 62.57 5.62 12.77 1.04 25.61 1.23 38.36 2.46 20.18 1.93 40.32 4.26 60.45 6.71 18.95 2.31 37.92 4.57 56.75 7.67 18.51 3.04 36.81 7.37 55.28 10.66 15.69 2.8 31.72 3.96 47.2 7.57 20.49 4.78 40.6 11.21 60.86 17 7.94 2.27 15.8 6.63 23.76 6.76 53.64.94 107.3 1 160.95 1.31 1.2.01 2.42-.19 3.63-.29l.5-1.58c-13.25-6.42-26.15-13.76-39.84-19.06-31.54-12.23-64.42-20.12-97.55-26.58a4564.33 4564.33 0 0 0-122.69-22.19c-27.54-4.59-55.29-7.96-83-11.48-27.7-3.52-55.45-6.66-83.21-9.73-18.19-2-36.4-3.73-54.62-5.34a6680.03 6680.03 0 0 0-69.1-5.65c-11.96-.93-23.93-1.46-35.88-2.36-18.42-1.38-36.8-3.28-55.23-4.28-17.67-.96-35.4-1.06-53.16-1.54v34.86zM258.9 533.1l.27 2.25c1.68.5 3.36 1.43 5.03 1.43 9.45 0 18.89-.23 28.33-.35 12.98-.16 25.99-.82 38.95-.3 20.08.8 40.12 2.81 60.21 3.57 21.96.82 43.96.68 65.94 1.17 11.67.26 19.76 6.88 24.91 16.58 6.12 11.52 6.32 24.3 5.21 37-.1 1.26-2.26 3.3-3.49 3.32-15.94.28-31.89.5-47.83.26-32.45-.5-64.9-1.48-97.34-1.86-19.64-.24-39.29.18-58.93.49-6.64.1-13.28.71-19.9 1.29-1.53.13-3 1.1-4.5 1.67a15.2 15.2 0 0 0 7.08 2.3c8.73.78 17.45 1.71 26.2 2.14 21.1 1.05 42.21 2.2 63.34 2.62 16.63.32 33.3-.6 49.94-.6 18.82.02 37.63.52 56.45.7 6.81.05 13.63-.36 20.45-.3 2.81.03 4.69.75 4.4 4.81-.8 11.56-1.1 23.18-1.13 34.77-.04 14.76.52 29.53.56 44.3.06 17.49-.15 34.98-.23 52.48-.03 5.24 0 10.5 0 15.72h8.34c.26-2.9.83-5.66.7-8.4-.56-11.6-1.51-23.19-1.95-34.8-.44-11.63-.87-23.28-.52-34.9.38-12.81 2.06-25.58 2.4-38.4.26-9.98 2.81-20.2-1.8-30.01-.52-1.1.9-3.12 1.43-4.71 1.27 1.1 3.34 2.02 3.67 3.36 1.04 4.3 2.1 8.77 1.96 13.15-.3 9.77-1.75 19.51-1.94 29.28-.36 18.6-.47 37.23-.1 55.84.33 16.53 1.44 33.05 2.22 49.67h5.05c-.54-17.5-1.37-34.77-1.5-52.05-.06-8.42.45-16.99 1.95-25.26a219.4 219.4 0 0 0 2.25-62.49c-1.32-12.4-1.49-12.78 11.4-12.72 22 .1 43.98.28 65.95.7 30.6.58 61.2 1.51 91.81 2.03 4.46.08 5.73 1.47 5.72 5.78-.1 29.8.02 59.6.06 89.4.02 17-.04 34 .03 50.99 0 2.5-.53 5.7 3.59 5.74 4.95.03 9.9 0 15.62 0-.44-8.28-1.05-16.04-1.21-23.8-.49-22.48-1.06-44.96-1.09-67.44-.02-18.8.7-37.6 1.07-56.4.06-2.87 1.2-4.1 4.31-4 20.13.64 40.27 1.15 60.4 1.67 25.97.68 51.93 1.24 77.89 2.01 30.96.91 61.9 2.32 92.87 2.9 37.64.7 75.3.78 112.95 1.07 7.33.06 14.66.03 21.98-.2 14.08-.46 28.14-1.52 42.21-1.56 22.15-.07 44.3.4 66.45.8 17.15.33 34.3.82 51.44 1.37 36.45 1.16 72.9 2.58 109.35 3.51 12.58.33 25.2-.74 37.8-.72 28.63.05 57.27.22 85.91.68 14.14.23 28.28 1.11 42.4 1.95 1.44.09 3.9 1.85 3.96 2.96.58 8.95.96 17.93.89 26.9-.1 11.81-.66 23.61-1.03 35.42-.12 3.66-.36 7.31-.45 10.97-.53 21.8-1.06 43.58-1.49 65.37-.02.8 1.05 1.63 1.6 2.45.49-.88 1.3-1.72 1.4-2.63.8-7.43.8-15 2.3-22.28 5.92-28.78 4.9-57.88 4.87-86.96 0-11.43.5-22.85.76-34.28.08-3.1.97-4.8 4.77-4.61 7.09.37 14.21.1 21.33.1a5.03 5.03 0 0 0-3.08-2.1c-18.9-4.71-38.21-4.8-57.49-4.67-10.7.07-21.4 1.44-32.1 1.52-8.28.07-16.57-1.12-24.87-1.47-11.46-.5-23.05-1.9-34.38-.8-18.57 1.82-37.1 3-55.74 2.6-34.47-.77-68.97-1-103.4-2.63-14.28-.68-28.98 2.36-42.93-3.27-.7-.28-1.65.07-2.48.1-14.15.47-28.3 1.4-42.43 1.3-25.48-.17-50.94-1.14-76.42-1.45-26.3-.32-52.6-.08-78.9-.41-24.32-.31-48.62-1.47-72.93-1.49-23.8-.02-47.6 1.35-71.4 1.3-19.09-.03-38.17-1.46-57.26-1.9-12.12-.28-24.27.25-36.4.17-11.49-.07-22.97-.58-34.46-.68-4.63-.04-9.28.72-13.9.63-1.47-.02-3.75-1.33-4.18-2.57-1.24-3.54-2.5-7.38-2.36-11.05.32-8.45 1-16.94 2.42-25.27 1.16-6.77 4.69-12.07 10.96-16.26 9.45-6.33 19.95-5.91 30.15-6.5 18.08-1.02 36.23-1.1 54.35-1.07 8.78.01 17.56 1.01 26.32 1.8 9.23.84 18.43 2.61 27.67 2.84 26.97.68 53.96.78 80.94 1.12 9.77.13 19.54.16 29.3.47 11.8.38 23.56 1.3 35.34 1.45 10.81.13 21.64-.73 32.45-.7 20.32.09 40.64.1 60.93.9 15.26.6 30.46 2.65 45.72 3.56 12.45.75 24.95 1.21 37.41.98 13.47-.25 26.92-1.97 40.4-2.12 21.14-.22 42.3.24 63.45.59 14.3.23 28.58 1.09 42.86 1.09 18.32 0 36.63-.77 54.94-.85 15.3-.08 30.62.42 45.92.54 12.95.1 25.9.02 38.84.02-4.89 0-9.78-.83-14.7-1.36-14.5-1.54-28.99-3.97-43.51-4.22-27.3-.47-54.62.6-81.93.58-24.46 0-48.92-.52-73.37-.95-26.97-.48-53.94-1.25-80.91-1.61-9.14-.13-18.3 1.06-27.43.84-32.29-.78-64.57-2.23-96.86-2.83-37.48-.7-74.97-.4-112.44-1.2-26.59-.56-53.15-2.19-79.72-3.35-7.32-.32-14.63-.59-21.94-1.03-13.6-.83-27.2-2.3-40.8-2.5-15.97-.25-31.97.24-47.92 1.1a78.54 78.54 0 0 0-20.39 3.94c-11.2 3.74-19.28 11.32-21.04 23.47-1.38 9.48-1.46 19.14-2.09 28.72-.11 1.83.15 3.71-.2 5.48-.24 1.1-1.3 2.02-2 3.03-.9-1.02-1.98-1.93-2.65-3.08-.35-.6.01-1.62 0-2.44-.07-10.94.13-21.9-.43-32.81-.16-3.25-1.65-7.18-3.9-9.43-6.94-6.92-14.42-14-24.6-15.1-19.49-2.14-39.05-4.22-58.62-4.64-21.28-.46-42.6 1.4-63.9 1.4-9.72 0-18.13 2.37-25.31 8.53-4.97 4.26-10.7 8.64-11.27 15.75-.85 10.6-.77 21.28-1.1 31.92-.04 1.27-.16 2.54-.24 3.81l-1.66.6c-.8-1.68-2.28-3.37-2.28-5.06.01-9.48.48-18.97.56-28.45a9.99 9.99 0 0 0-1.55-5.59c-9.4-13.11-22.3-21.14-38.19-22.92-21.13-2.37-42.38-4-63.63-5.06-13.1-.65-26.3.33-39.45.64-27.46.66-54.93 1.28-82.4 2.19-3.12.1-6.2 1.95-9.3 3zm2.92 57c4.03.38 8.14 1.08 12.26 1.12 28.3.27 56.58.32 84.87.6 23.98.25 47.95.82 71.93 1.07 15.6.17 31.22.05 46.84.01 1.6 0 3.19-.26 4.68-.4 1.32-12.58.82-15.62-4.67-33.09-2.28-7.28-6.24-12.31-14.57-12.55-19.63-.57-39.24-1.27-58.87-1.82-12.97-.37-25.96-.28-38.92-.93-13.76-.68-27.48-2.73-41.23-2.84-17.94-.14-35.9.98-53.83 1.75-1.12.05-2.82 1.63-3.13 2.8-1.5 5.76-2.8 11.6-3.85 17.48-1.54 8.62-3.77 17.23-1.51 26.8zm1111.74-452.76c-48.22-14.14-96.68-22.38-146.18-29.54l50.95 121.46 95.23-91.92zM477.62 647.67c-73.43-.1-146.47 1.96-219.86 9.18v29.63c3.74-.27 7.43-.2 11-.85 22.49-4.05 45.2-5.33 67.99-5.62 33.94-.44 67.89-.85 101.83-.91 12.9-.03 25.82.92 39.04 1.44v-32.87zm872.2-41.55c.98-17.59 3.27-34.14.9-51.01-34.23 0-67.65-.03-101.08.1-1.44 0-3.13 1.09-4.27 2.14a6863.56 6863.56 0 0 0-41.78 38.6c-1.82 1.7-3.3 3.78-5.7 6.58l151.93 3.59zM887.4 92.21l-.99-.83c-17.5 2.87-35.1 5.32-52.51 8.75a478.08 478.08 0 0 0-43.02 10.54c-9.94 2.94-19.35 7.65-29.1 11.27-5.03 1.86-5.6 2.72-2.84 7.36 8.22 13.87 16.44 27.74 24.68 41.6 6.34 10.67 12.7 21.33 19.11 32.1 1.65-2.18 3.08-3.95 4.39-5.8 10.6-15.08 21.96-29.7 31.55-45.41 9.1-14.9 19.4-28.58 31.57-41 5.9-6.02 11.45-12.38 17.16-18.58zM825.93 548.9c-5.02-.61-10.52-1.62-16.06-1.88-12.2-.57-24.4-.86-36.6-1.07-8.9-.16-17.83-.28-26.72.05-7.6.3-15.36.43-22.7 2.14-9.62 2.23-19.42 6.12-21.52 17.23-1.65 8.7-1.35 17.84-1.24 26.78.07 5.35 1.86 6.1 7.43 5.57 4.78-.46 9.6-.81 14.4-.77 10.64.11 21.29.52 31.93.77 15.74.36 31.48.73 47.22 1 6.57.13 13.14.03 18.63.03l5.23-49.86zm651.44-42.75l.16 1.72c9.09.76 18.18 1.6 27.28 2.24 2.79.2 5.63-.33 8.43-.19 3.39.17 6.9 4.24 6.58 7.54-.38 3.92-3.45 5.06-6.49 4.48-3.2-.62-6.22-2.38-9.22-3.83-1.55-.75-2.8-2.63-4.33-2.81a674.11 674.11 0 0 0-32.7-3.37c-8.8-.63-17.68-.29-26.5-.9-10.86-.76-21.69-2.19-32.55-3.05-4.3-.34-8.66-.1-12.98.16-6.37.4-12.73 1.06-20.33 1.72 5.36 10.87 2.88 20.8.15 31.37a99.44 99.44 0 0 0 16.7-5.2c5.7-2.24 9-.77 11.36 4.93a5.28 5.28 0 0 0 3.3 2.67c2.07.45 4.3.12 6.46.18 11.92.36 23.87.36 35.75 1.22 11.38.83 22.67 3.26 34.05 3.75 18.54.79 37.28 1.45 54.83-6.33 6.29-2.79 12.25-6.38 18.1-10 1.38-.85 2.51-3.38 2.42-5.06a54.7 54.7 0 0 0-1.97-12.19c-1.24-4.34-4.12-6.47-9.19-6.63-16.25-.48-32.48-1.67-48.73-2.36-6.85-.3-13.72-.06-20.58-.06zm-358.21 33.46c1.18.07 2.14.2 3.1.18 10.97-.25 21.95-.89 32.91-.71 13.42.22 26.83 1.4 40.25 1.66 44.11.85 88.23 1.6 132.35 2.1 10.83.13 21.68-.82 32.52-1.27-7.67-4.78-15.93-7.45-24.64-8.61-5.92-.8-11.9-1.08-17.82-1.9-1-.14-1.8-1.81-2.7-2.78 1.19-.69 2.43-2.05 3.54-1.96 7.44.63 15 .9 22.22 2.57 8.45 1.94 16.6 5.18 25.14 7.94l4.98-25.81c-2.44 0-3.58-.06-4.71 0-10.95.68-21.94 2.27-32.84 1.8-10.2-.43-20.02-1.84-29.31 4.09-2.38 1.52-5.92 1.22-9.2 1.8 2.26 4.8 4.47 9.02 6.26 13.41 1.5 3.66.84 8.02-3.2 8.49-4.67.55-9.93-.46-14.26-2.34-1.44-.63-1.37-6.12-.96-9.25.45-3.5 2.08-6.85 3.37-10.82-56.36-4.17-111.99.48-167.99.16l.99 21.25zM508.46 680.6c27.73 0 55.35-.97 82.88.27 27.65 1.24 55.2 4.68 83.07 7.18v-36.27l-162.18-4.5-3.77 33.32zM66.14 805.84l-.57 1.93c2.08 2.3 3.83 5.04 6.29 6.79 7.03 5 14.25 9.77 21.62 14.25 2.25 1.36 5.24 1.94 7.92 2.07 17.79.84 35.69.5 53.35 2.37 26.05 2.76 52.06 4.15 78.22 3.58 12.13-.26 24.26-.06 36.4-.06h20.75c-8.22-2.2-16.5-3.8-24.77-5.38-46.71-8.84-93.48-17.4-140.11-26.64-18.15-3.6-36.84-4.84-54.34-11.59-1.33-.5-2.96-.28-4.45-.33-8.44-.33-16.88-.7-25.33-.87-1.3-.02-3 .67-3.87 1.63-3.59 3.97-3.79 10.9-.38 15.16 5.8 7.28 12.94 12.92 21.73 16.21 7.93 2.97 15.91 5.8 23.93 8.54 4.67 1.6 9.44 2.9 14.17 4.32-7.04-5.02-14.44-9.2-21.34-14.08a68.46 68.46 0 0 1-12.94-11.58c-4.03-4.8-2.12-9.75 3.96-11.43 3.14-.87 6.57-.98 9.86-.93 1.24.02 2.46 1.45 3.7 2.23-1.26.96-2.4 2.47-3.78 2.75-3.27.67-6.67.75-10.02 1.06zM826.3 599.8c3.14 0 4.78.04 6.42-.01l52.4-1.64c5.03-.15 9.19-.67 13.52-4.9 9-8.8 19.46-16.11 29.3-24.08 6.63-5.4 13.22-10.85 20.8-17.07-2.45-.11-3.55-.17-4.65-.2-16.63-.59-33.26-1.4-49.9-1.69-19.64-.33-39.3-.14-58.95-.31-3.15-.03-4.35.83-4.57 4.17-.31 4.78-1.66 9.49-2.09 14.27-.9 10.2-1.5 20.42-2.28 31.46zm411.22-45.5c-38.71.09-79.33 7.63-120.82.53v45.63c.03 0 .33.23.63.23 23.6.02 47.22.09 70.83-.1a10.77 10.77 0 0 0 6.57-2.67 951.04 951.04 0 0 0 30.03-28.49c4.88-4.89 8.96-10.58 12.76-15.13zm-965.63-29.43c6.17-.29 11.94-.65 17.7-.81 25.12-.72 50.24-1.87 75.36-1.93 21.1-.06 42.25.6 63.3 2.05 12.5.85 25.07 3.02 37.23 6.12 7.6 1.93 14.48 6.68 21.65 10.15 4.3-12.05-3.5-26.72-16.79-30.4-25.06-6.97-50.86-8.55-76.6-8.7-24.57-.15-49.18 1.4-73.73 2.95-12.23.78-24.4 2.93-36.5 5-8.2 1.4-11.35 5.95-11.62 15.57zm753.1 26.65l-1.63 46.94 87.75 2.82v-47.64l-86.13-2.12zm-766.04 80.66l219.24-5.38c0-4.25.01-8.74-.01-13.22 0-.64-.17-1.27-.17-1.29l-217.92-2.32-1.14 22.21zm716.49-106.16c0-3.91.26-7.08-.08-10.18-.34-3.15-1.94-5.42-5.62-5.68-4.97-.36-9.93-.92-14.89-1.5-26.29-3.1-52.6-5.33-79.14-3.8-13.82.8-25.84 5.96-36.46 14.46-2.58 2.07-4.38 5.35-5.96 8.37-1.66 3.17-.02 5.03 3.41 5.26 9.62.64 19.24 1.52 28.87 1.8 26.15.78 52.3 1.34 78.44 1.88 8.8.18 17.62.03 26.6.03 1.2-3.97-3.96-10.8 4.83-10.64zm29.32 26.08c-15.34 0-30.13-.16-44.91.15-2.31.05-4.87 1.85-6.83 3.43-16.06 12.98-32 26.11-48.02 39.13-.93.76-2.38.88-3.6 1.3l1.67 2.66h101.7V552.1zm-10.96-15.97l119.58 3.6c0-6.26.46-11.94-.1-17.52-1.18-12.02-1.39-12-13.47-13.91-.65-.1-1.32-.19-1.98-.18-22.81.22-45.62.48-68.43.66-6.99.06-14.02.41-20.95-.24-6.76-.64-14.47 5.18-14.63 12.15-.11 5.18-.02 10.38-.02 15.44zm519.68 227.92c5.14 0 9.22.2 13.28-.04 11.42-.67 15.39-3.54 16.39-14.7 1.1-12.36.84-24.84.85-37.26.01-15.96-.48-31.92-.4-47.88.04-10.29 1.9-20.7.8-30.83-1.5-13.91 2.44-12.13-12.15-12.5-1.66-.03-3.33-.09-5-.16-4-.16-6.21 1.5-6.26 5.75-.16 12.6-.86 25.2-.48 37.79.76 25.15.92 50.2-3.6 75.1-1.41 7.8-2.2 15.72-3.43 24.73zM96.62 754.07l.1.82 162.3 2.13c-11-12.11-13.2-25.5-10.8-40.65l-151.6 37.7zm414.05-127.19c28.1-3.14 55.14-.26 82.22 1 27.04 1.25 54.1 1.98 81.1 2.94v-17.57c-54.78 1.64-109-4.37-163.32-1.33v14.96zm943.36-67.9c-2 1.17-3.25 2-4.57 2.68-2.17 1.13-4.37 3.03-6.6 3.1-6.71.18-13.5.05-20.16-.75-6.5-.78-12.9-2.54-19.72-3.95v43.73h47.16l3.89-44.81zm57.84 46.05c.61-15.55 1.25-30.3 1.66-45.05.03-1.13-1.54-3.25-2.48-3.32-9.36-.69-18.77-1.69-28.6 1.02l3.17 45.48 26.25 1.87zm-773.89-76.28l62.62 2.43c.1-1.4.25-1.77.14-2.04-11.42-27.15-43.58-32.21-66.36-14.24-1.16.92-1.23 4.25-.66 6.1.84 2.7 2.73 5.07 4.26 7.75zm631.42 76.45l19.97-2.32V555.9l-19.97-2.13v51.43zm222.96 209.06l1.19-.23c0-2.76.33-5.57-.08-8.26-.63-4.09 1.41-5.9 4.85-6.78 2.08-.54 4.22-.86 6.34-1.24 7.96-1.44 8-1.5 8.26-9.73.05-1.66.3-3.31.52-4.96.49-3.8-.61-6.21-4.78-7.27-11.9-3.01-22.79 1.54-34.05 3.5 2.74 3.88 5.55 7.14 7.49 10.85 1.2 2.32.55 5.57 1.67 7.97 2.56 5.52 5.69 10.78 8.59 16.15zm-47.96-51.06c3.77 2.4 7.6 4.7 11.28 7.22 6.74 4.63 13.88 5.97 21.8 3.58 5.22-1.57 10.57-2.67 15.86-3.98l2.8-.7.14-1.61c-15.86-4.3-31.72-8.58-46.78-12.65l-5.1 8.14zM748.94 126.3l-1.4 1.3 112.58 185.37c.23-1.9-.4-3.34-1.2-4.69a115030 115030 0 0 0-47.59-80.2c-19.35-32.6-38.7-65.2-58.13-97.75-.97-1.61-2.82-2.7-4.26-4.03zm720.6 477.4l3.27-45.28c-8.15-.65-8.51-.4-8.86 4.9-.87 13.37-1.8 26.73-2.72 40.39h8.3zM793.53 483.07l-2.2-.17-11.7 18.4c4.57 2.53 8.68 4.79 12.56 6.92.98-6.4 2.12-12.42 2.72-18.5.21-2.14-.88-4.42-1.38-6.64zm602.08 74.37l-1 1.13c0 9.92-.02 19.85 0 29.77 0 3.81-.02 7.63.2 11.44.08 1.16.95 2.27 1.46 3.4 1.28-1.01 1.55-1.63 1.56-2.26.16-13.43.35-26.86.3-40.28 0-1.07-1.64-2.14-2.52-3.2zm-377.28 40.63l1.65-45.47c-4.52 2.16-5.57 31.52-1.65 45.47zm341.36 7.46c.25.2.49.42.73.63.47-.94 1.33-1.88 1.35-2.83.33-16.11.32-32.22.17-48.32l-2.24.02v50.5zm-348.24-52.36l-1.23.04v45.08h1.23v-45.12z"/>
    <path fill="#fff7d6" d="M783.08 888.63c-.57-13.42-1.3-26.84-1.6-40.27-.07-2.62 1.29-5.34 2.34-7.87.26-.64 2.18-1.26 2.78-.92.72.42 1.4 2.01 1.16 2.84-2.87 10.64.1 21.34-.45 32-.44 8.61.18 17.28.51 25.92.45 11.76 1.44 23.52 1.52 35.28.05 8.76-.87 17.53-1.62 26.28-.09 1-1.87 1.87-2.87 2.8-.7-1.15-1.75-2.23-2.01-3.48-.33-1.58-.23-3.34.06-4.96 2.52-14.13.33-28.14-.7-42.21-.62-8.43-.11-16.94-.11-25.4l1-.01zM376.15 780.35c48.98 0 97.97-.2 146.96.07 36.8.2 73.61 1.02 110.42 1.6 15.49.24 30.99.28 46.46.98 13.27.6 26.5 2.4 39.77 2.93 17.12.7 34.28 1.03 51.42.84 30.81-.33 61.61-1.62 92.42-1.64 27.47-.02 54.94 1.56 82.41 1.69 33.29.15 66.58-.81 99.87-.65 27.27.13 54.53 1.5 81.8 1.77 33.81.34 67.63-.12 101.44.16 71.29.6 142.57 1.48 213.86 2.23 33.48.36 66.97.68 100.45 1.04 3.5.04 7.02.04 10.48.46 1.35.16 2.55 1.45 3.82 2.23-1.33.93-2.65 2.65-4 2.67-9.32.12-18.65-.13-27.98-.22-31.5-.3-62.98-.54-94.47-.85-68.8-.7-137.6-1.46-206.41-2.12-36.31-.35-72.63-.51-108.94-.8-32.1-.26-64.2-.75-96.3-.8-19.32-.03-38.63 1.01-57.94.82-29.64-.3-59.27-1.48-88.9-1.82-24.98-.29-49.96 0-74.93.17-24.3.16-48.62.98-72.92.58-16.1-.27-32.17-2.2-48.27-3.34-3.48-.24-6.98-.32-10.47-.38-40.8-.7-81.6-1.7-122.4-2-87.77-.64-175.55-.9-263.33-1.31-69.15-.33-138.3-.65-207.44-1.02-2.6-.02-6.25 1.1-6.63-2.92-.06-.66 4.45-2.56 6.84-2.55 75.48.23 150.96.65 226.44.98 25.49.1 50.98.01 76.47.01v1.2zM293.8 769.32c50.64 0 101.29-.05 151.94.03 22.32.04 44.64.28 66.96.57 83.76 1.1 167.52 2.36 251.28 3.39 61.81.76 123.63 1.17 185.43 1.86 44.98.5 89.95 1.2 134.92 1.84 51.8.76 103.58 1.73 155.37 2.3 50.65.55 101.3.7 151.95 1.04l151.96 1c3.33.03 6.69-.06 9.98.35 1.5.18 2.85 1.43 4.28 2.2-1.42.98-2.84 2.8-4.26 2.82-12.83.1-25.66-.14-38.5-.22-40.48-.24-80.97-.42-121.45-.7-60.99-.4-121.97-.85-182.95-1.3-23.15-.17-46.32-.17-69.47-.66-24.77-.52-49.53-1.67-74.3-2.29-15.98-.4-31.96-.33-47.95-.48l-272.4-2.55c-61.97-.6-123.94-1.22-185.92-1.85-14.66-.15-29.32-.43-43.98-.6-75.26-.86-150.53-1.75-225.8-2.53-43.48-.44-86.96-.69-130.45-1.02-27.65-.22-55.31-.42-82.97-.63-1 0-2.11.29-2.97-.06-1.89-.76-3.65-1.84-5.46-2.79 1.77-.76 3.54-2.18 5.31-2.18 26.5-.08 53 .07 79.49.1 46.65.02 93.3 0 139.95 0v2.36zM503.88 597.44c0-13.49-.85-25.5.25-37.32 1-10.76 12.62-19.79 23.38-20.21 14.6-.58 29.2-1.75 43.8-1.65 26.3.18 52.6.67 78.86 1.96 10.41.51 19.63 5.9 25.53 14.74 2.61 3.9 3.32 9.33 4.03 14.19.9 6.23 1.32 12.6 1.2 18.9-.07 4.14-1.47 8.27-2.48 13.42l-174.57-4.03zm3.49-6.06c5.66.5 10.92 1.2 16.2 1.4 20.29.76 40.57 1.56 60.86 1.97 28.11.57 56.23.7 84.34 1.28 4.68.1 7.27-1.76 7.2-5.95-.11-7.41-.33-14.95-1.73-22.2-2.68-13.9-9.7-20.11-23.75-22.04-4.91-.67-9.91-.8-14.88-.92-19.95-.48-39.92-.49-59.85-1.37-17.33-.77-34.54-.66-51.64 2.48-8.93 1.65-14.25 6.9-16.4 15.83-2.34 9.75-2.24 19.41-.35 29.52zM687.18 719.79c-.7-20.79-1.76-41.56-1.96-62.35-.14-13.23.99-26.46 1.58-39.7.05-.98.05-2.23.63-2.87.85-.96 2.2-1.5 3.33-2.2.68 1.13 2.13 2.42 1.94 3.39-4.12 21.06-3.4 42.28-2.55 63.54.78 19.6 1.27 39.22 1.92 58.83.15 4.32.64 8.63.56 12.94-.03 1.2-1.55 2.36-2.39 3.54-.8-1.23-2.3-2.44-2.33-3.68-.19-10.48-.1-20.96-.1-31.44h-.63z"/>
  </g>
</svg>